{
    "rows": [
        [
            9
        ],
        [
            1,
            1
        ],
        [
            1,
            1,
            1
        ],
        [
            1,
            3,
            1
        ],
        [
            13
        ],
        [
            13
        ],
        [
            13
        ],
        [
            13
        ],
        [
            2,
            2
        ],
        [
            2,
            2
        ],
        [
            0
        ],
        [
            2,
            2
        ],
        [
            2,
            2
        ],
        [
            2,
            2
        ],
        [
            2,
            2
        ],
        [
            2,
            2
        ],
        [
            2,
            2
        ],
        [
            2,
            2
        ],
        [
            2,
            2
        ],
        [
            2,
            2
        ],
        [
            2,
            2
        ],
        [
            2,
            2
        ],
        [
            2,
            2
        ],
        [
            2,
            2
        ],
        [
            2,
            2
        ]
    ],
    "cols": [
        [
            2
        ],
        [
            4,
            6
        ],
        [
            9,
            4,
            4,
            2
        ],
        [
            1,
            6,
            2,
            6
        ],
        [
            1,
            5,
            2
        ],
        [
            1,
            6
        ],
        [
            1,
            5
        ],
        [
            1,
            4
        ],
        [
            1,
            4
        ],
        [
            1,
            4,
            2
        ],
        [
            1,
            4,
            6
        ],
        [
            1,
            6,
            4,
            4,
            2
        ],
        [
            9,
            2,
            6
        ],
        [
            4,
            2
        ]
    ]
}
