{
    "rows": [
        [
            4
        ],
        [
            2,
            6
        ],
        [
            3,
            7
        ],
        [
            4,
            8
        ],
        [
            2,
            4,
            9
        ],
        [
            4,
            4,
            9
        ],
        [
            4,
            4,
            8
        ],
        [
            4,
            3,
            7
        ],
        [
            4,
            3,
            5
        ],
        [
            3,
            3,
            3
        ],
        [
            4
        ],
        [
            4
        ],
        [
            3,
            8
        ],
        [
            2,
            14
        ],
        [
            16
        ],
        [
            17
        ],
        [
            19
        ],
        [
            18
        ],
        [
            19
        ],
        [
            18
        ],
        [
            18
        ],
        [
            16
        ],
        [
            14
        ],
        [
            12
        ],
        [
            11
        ],
        [
            9,
            5
        ],
        [
            8,
            6
        ],
        [
            8,
            7
        ],
        [
            8,
            6
        ],
        [
            7,
            7
        ],
        [
            15
        ],
        [
            13
        ],
        [
            11
        ],
        [
            9
        ]
    ],
    "cols": [
        [
            3
        ],
        [
            4
        ],
        [
            5,
            3
        ],
        [
            4,
            7
        ],
        [
            12
        ],
        [
            4,
            13
        ],
        [
            6,
            15
        ],
        [
            6,
            17
        ],
        [
            5,
            19
        ],
        [
            20
        ],
        [
            21
        ],
        [
            4,
            21
        ],
        [
            7,
            14,
            6
        ],
        [
            8,
            13,
            4
        ],
        [
            8,
            12,
            4
        ],
        [
            11,
            4
        ],
        [
            10,
            5
        ],
        [
            10,
            7
        ],
        [
            4,
            9,
            9
        ],
        [
            6,
            9,
            8
        ],
        [
            8,
            7,
            7
        ],
        [
            9,
            6,
            6
        ],
        [
            10,
            3,
            5
        ],
        [
            9,
            2
        ],
        [
            8
        ],
        [
            7
        ],
        [
            5
        ]
    ]
}
